time,DHT_T/degC,DHT_H/%,Thermistor
20200105175420,27.6,26.0,3896.0
20200105175424,26.1,29.2,3930.2
20200105175428,25.7,28.5,3930.2
20200105175431,25.5,28.5,3883.4
20200105175435,25.9,28.7,3792.5
20200105175439,26.2,29.0,3696.9
20200105175443,26.9,28.4,3594.2
20200105175447,28.1,28.4,3503.9
20200105175451,29.6,27.6,3432.3
20200105175455,31.4,26.7,3357.5
20200105175458,33.3,25.6,3281.4
20200105175502,35.2,24.2,3215.3
20200105175506,37.1,22.8,3150.6
20200105175510,38.9,20.8,3086.1
20200105175514,40.7,19.6,3015.5
20200105175518,42.4,18.6,2950.9
20200105175522,44.1,17.7,2894.3
20200105175526,45.6,16.6,2832.5
20200105175529,47.10001,16.0,2779.2
20200105175533,48.6,15.0,2730.7
20200105175537,50.0,14.6,2680.0
20200105175541,51.3,13.8,2634.2
20200105175545,52.6,13.2,2578.6
20200105175549,53.7,12.7,2537.6
20200105175553,55.0,12.7,2497.2
20200105175557,56.2,12.3,2456.3
20200105175600,57.3,12.0,2427.6
20200105175604,58.4,11.7,2387.5
20200105175608,59.4,11.5,2356.4
20200105175612,60.4,11.4,2320.5
20200105175616,61.2,11.2,2297.3
20200105175620,62.2,11.1,2272.4
20200105175624,63.1,11.0,2246.1
20200105175627,63.9,10.6,2226.4
20200105175631,64.8,10.6,2196.9
20200105175635,65.6,10.7,2178.1
20200105175639,66.4,10.7,2159.5
20200105175643,67.1,10.8,2133.4
20200105175647,67.9,10.4,2127.3
20200105175651,68.4,10.5,2111.1
20200105175655,69.20001,10.7,2098.4
20200105175658,69.9,10.4,2083.0
20200105175702,70.5,10.6,2065.6
20200105175706,71.0,10.7,2060.8
20200105175710,71.6,10.5,2039.0
20200105175714,72.20001,10.7,2030.1
20200105175718,72.6,10.5,2013.6
20200105175722,73.3,10.7,2010.9
20200105175725,73.7,10.5,2001.2
20200105175729,74.1,10.7,1987.9
20200105175733,74.8,10.6,1982.3
20200105175737,75.2,10.9,1978.8
20200105175741,75.70001,10.7,1972.0
20200105175745,75.9,10.6,1965.3
20200105175749,76.4,10.8,1955.1
20200105175753,76.6,10.7,1958.8
20200105175756,77.1,11.0,1949.9
20200105175800,77.3,10.9,1948.0
20200105175804,77.8,10.8,1947.7
20200105175808,78.1,11.0,1941.5
20200105175812,78.3,11.0,1934.9
20200105175816,78.9,10.9,1933.8
20200105175820,79.1,11.2,1934.8
20200105175823,79.4,11.1,1922.7
20200105175827,79.70001,11.0,1924.6
20200105175831,79.9,11.0,1926.2
20200105175835,79.9,10.9,1924.5
20200105175839,80.2,11.3,1922.6
20200105175843,80.5,11.2,1922.2
20200105175847,80.70001,11.1,1918.6
20200105175851,81.0,11.4,1922.6
20200105175854,81.0,11.4,1922.7
20200105175858,81.3,11.3,1921.8
20200105175902,81.6,11.3,1923.8
20200105175906,81.6,11.2,1929.1
20200105175910,81.90001,11.1,1922.0
20200105175914,81.90001,11.1,1927.7
20200105175918,82.2,11.5,1927.7
20200105175922,82.1,11.4,1927.4
20200105175925,82.40001,11.4,1936.6
20200105175929,82.40001,11.3,1935.9
20200105175933,82.40001,11.3,1934.5
20200105175937,82.7,11.3,1937.7
20200105175941,82.7,11.3,1942.8
20200105175945,82.7,11.2,1938.9
20200105175949,83.0,11.6,1948.7
20200105175952,83.1,11.5,1939.7
20200105175956,83.0,11.5,1952.0
20200105180000,83.4,11.5,1956.3
20200105180004,83.30001,11.5,1962.6
20200105180008,83.30001,11.4,1961.2
20200105180012,83.30001,11.4,1966.5
20200105180016,83.30001,11.4,1970.3
20200105180020,83.70001,11.4,1973.6
20200105180023,83.6,11.4,1980.4
20200105180027,83.70001,11.4,1981.9
20200105180031,83.70001,11.4,1986.1
20200105180035,83.6,11.4,1989.0
20200105180039,83.6,11.3,1992.6
20200105180043,83.6,11.3,1998.2
20200105180047,83.6,11.3,1999.7
20200105180051,83.6,11.3,2002.9
20200105180054,83.6,11.3,2007.2
20200105180058,83.6,11.3,2012.3
20200105180102,83.6,11.3,2018.5
20200105180106,83.70001,11.3,2016.9
20200105180110,83.6,11.3,2026.7
20200105180114,83.6,11.3,2032.2
20200105180118,83.6,11.3,2033.7
20200105180121,83.6,11.3,2037.6
20200105180125,83.6,11.3,2037.3
20200105180129,83.6,11.3,2044.5
20200105180133,83.6,11.3,2048.5
20200105180137,83.70001,11.3,2059.6
20200105180141,83.70001,11.3,2068.9
20200105180145,83.30001,11.3,2066.1
20200105180149,83.30001,11.3,2067.0
20200105180152,83.30001,11.3,2076.9
20200105180156,83.30001,11.3,2079.7
20200105180200,83.30001,11.3,2084.8
20200105180204,83.30001,11.3,2090.9
20200105180208,83.0,11.3,2096.5
20200105180212,83.0,11.3,2097.5
20200105180216,83.0,11.3,2100.5
20200105180220,83.0,11.3,2105.7
20200105180223,83.0,11.3,2106.3
20200105180227,82.7,11.0,2114.4
20200105180231,82.7,11.0,2120.4
20200105180235,82.7,11.0,2125.5
20200105180239,82.7,11.0,2123.4
20200105180243,82.40001,11.0,2127.6
20200105180247,82.40001,11.1,2133.9
20200105180251,82.40001,11.1,2144.7
20200105180254,82.40001,11.1,2146.5
20200105180258,82.2,11.1,2154.6
20200105180302,82.2,11.1,2157.3
20200105180306,82.1,11.2,2155.8
20200105180310,81.8,10.7,2159.6
20200105180314,81.8,10.8,2159.4
20200105180318,81.8,10.8,2162.6
20200105180322,81.90001,10.8,2173.7
20200105180325,81.50001,10.8,2176.4
20200105180329,81.6,10.8,2180.4
20200105180333,81.3,10.8,2185.2
20200105180337,81.3,10.8,2187.7
20200105180341,81.3,10.9,2193.4
20200105180345,81.0,10.9,2199.8
20200105180349,81.0,10.9,2204.9
20200105180352,81.0,10.9,2207.7
20200105180356,80.70001,10.6,2213.0
20200105180400,80.70001,10.6,2217.7
20200105180404,80.70001,10.7,2224.7
20200105180408,80.4,10.7,2225.6
20200105180412,80.4,10.7,2229.4
20200105180416,80.1,10.7,2235.5
20200105180420,80.1,10.7,2242.0
20200105180423,80.1,10.8,2247.0
20200105180427,79.9,10.3,2248.8
20200105180431,79.9,10.4,2252.7
20200105180435,79.6,10.4,2262.9
20200105180439,79.6,10.4,2262.1
20200105180443,79.6,10.5,2265.9
20200105180447,79.3,10.5,2271.6
20200105180450,79.4,10.5,2274.2
20200105180454,79.1,10.5,2280.4
20200105180458,79.1,10.6,2287.1
20200105180502,78.80001,10.2,2289.2
20200105180506,78.80001,10.2,2294.0
20200105180510,78.5,10.2,2301.7
20200105180514,78.6,10.3,2303.1
20200105180518,78.3,10.3,2307.6
20200105180521,78.3,10.3,2311.8
20200105180525,78.3,10.3,2314.0
20200105180529,78.0,10.4,2316.7
20200105180533,78.1,10.4,2325.9
20200105180537,77.8,10.1,2329.6
20200105180541,77.8,10.1,2335.0
20200105180545,77.5,10.1,2338.8
20200105180549,77.6,10.2,2343.6
20200105180552,77.3,10.2,2351.4
20200105180556,77.3,10.2,2352.9
20200105180600,77.0,10.2,2359.6
20200105180604,76.8,9.8,2361.8
20200105180608,76.8,9.900001,2367.4
20200105180612,76.5,9.900001,2364.1
20200105180616,76.5,9.900001,2376.9
20200105180619,76.30001,10.0,2379.9
20200105180623,76.30001,10.0,2388.0
20200105180627,76.1,10.0,2388.1
20200105180631,76.1,10.1,2394.2
20200105180635,75.8,9.8,2394.3
20200105180639,75.8,9.8,2405.1
20200105180643,75.6,9.8,2407.1
20200105180647,75.6,9.8,2413.6
20200105180650,75.4,9.900001,2413.2
20200105180654,75.1,9.900001,2423.8
20200105180658,75.2,10.0,2421.2
20200105180702,74.9,9.5,2424.4
20200105180706,74.9,9.6,2426.6
20200105180710,74.70001,9.6,2438.5
20200105180714,74.70001,9.7,2441.1
20200105180717,74.5,9.7,2445.3
20200105180721,74.5,9.7,2449.0
20200105180725,74.3,9.8,2451.4
20200105180729,74.0,9.8,2456.5
20200105180733,74.1,9.8,2464.1
20200105180737,73.80001,9.400001,2473.7
20200105180741,73.80001,9.5,2468.0
20200105180745,73.6,9.5,2468.8
20200105180748,73.4,9.6,2477.4
20200105180752,73.4,9.6,2480.9
20200105180756,73.20001,9.6,2484.7
20200105180800,73.20001,9.6,2488.8
20200105180804,72.9,9.3,2493.2
20200105180808,72.7,9.3,2499.3
20200105180812,72.8,9.400001,2506.1
20200105180816,72.6,9.400001,2504.4
20200105180819,72.6,9.5,2512.3
20200105180823,72.4,9.5,2520.3
20200105180827,72.1,9.6,2521.5
20200105180831,72.1,9.6,2520.7
20200105180835,71.9,9.2,2531.5
20200105180839,71.70001,9.2,2532.3
20200105180843,71.8,9.3,2536.5
20200105180846,71.5,9.3,2540.9
20200105180850,71.30001,9.400001,2543.4
20200105180854,71.30001,9.400001,2548.4
20200105180858,71.1,9.400001,2553.4
20200105180902,70.9,9.1,2562.1
20200105180906,70.9,9.1,2566.9
20200105180910,70.8,9.2,2571.5
20200105180914,70.8,9.2,2570.5
20200105180917,70.5,9.3,2583.3
20200105180921,70.4,9.3,2583.0
20200105180925,70.4,9.3,2591.1
20200105180929,70.2,9.400001,2593.3
20200105180933,70.0,9.400001,2597.1
20200105180937,70.0,9.400001,2599.2
20200105180941,69.8,9.1,2605.1
20200105180945,69.6,9.1,2605.8
20200105180948,69.6,9.2,2614.1
20200105180952,69.5,9.2,2614.7
20200105180956,69.20001,9.2,2618.5
20200105181000,69.20001,9.3,2621.7
20200105181004,69.1,9.3,2627.2
20200105181008,68.9,8.900001,2631.2
20200105181012,68.7,9.0,2632.5
20200105181016,68.7,9.0,2638.0
20200105181019,68.5,9.1,2639.6
20200105181023,68.4,9.1,2651.8

20200105181027,68.4,9.1,2657.3
20200105181031,68.20001,9.2,2655.7
20200105181035,68.0,9.2,2657.3
20200105181039,68.0,9.3,2659.4
20200105181043,67.8,8.900001,2664.4
20200105181047,67.6,9.0,2667.5
20200105181050,67.5,9.0,2670.8
20200105181054,67.5,9.0,2674.4
20200105181058,67.3,9.1,2673.8
20200105181102,67.1,9.1,2679.8
20200105181106,67.1,9.2,2687.1
20200105181110,66.9,8.8,2688.2
20200105181114,66.8,8.8,2690.1
20200105181117,66.6,8.8,2696.7
20200105181121,66.70001,8.900001,2700.7
20200105181125,66.5,8.900001,2713.3
20200105181129,66.30001,9.0,2710.0
20200105181133,66.30001,9.0,2705.8
20200105181137,66.2,9.1,2713.1
20200105181141,66.0,9.1,2718.0
20200105181145,66.0,9.1,2720.2
20200105181148,65.8,8.8,2721.5
20200105181152,65.6,8.900001,2727.2
20200105181156,65.5,8.900001,2732.0
20200105181200,65.5,8.900001,2736.4
20200105181204,65.3,9.0,2739.0
20200105181208,65.2,9.0,2741.4
20200105181212,65.0,9.1,2746.0
20200105181215,65.0,9.1,2752.4
20200105181219,64.8,8.7,2752.2
20200105181223,64.70001,8.8,2756.9
20200105181227,64.5,8.8,2757.2
20200105181231,64.5,8.900001,2762.5
20200105181235,64.4,8.900001,2769.1
20200105181239,64.3,8.900001,2767.8
20200105181243,64.1,9.0,2773.0
20200105181246,64.1,9.0,2774.6
20200105181250,63.9,8.6,2784.7
20200105181254,63.8,8.7,2784.2
20200105181258,63.8,8.7,2789.5
20200105181302,63.7,8.8,2790.1
20200105181306,63.5,8.8,2793.8
20200105181310,63.3,8.900001,2794.0
20200105181313,63.2,8.900001,2801.0
20200105181317,63.2,8.900001,2799.2
20200105181321,63.0,9.0,2807.6
20200105181325,62.9,8.7,2814.6
20200105181329,62.8,8.7,2818.3
20200105181333,62.8,8.8,2815.0
20200105181337,62.7,8.8,2819.6
20200105181341,62.5,8.8,2823.7
20200105181344,62.3,8.900001,2827.7
20200105181348,62.2,8.900001,2827.4
20200105181352,62.2,9.0,2833.3
20200105181356,62.10001,9.0,2838.8
20200105181400,62.0,9.1,2839.0
20200105181404,61.8,8.7,2850.7
20200105181408,61.8,8.7,2847.6
20200105181411,61.7,8.8,2847.8
20200105181415,61.6,8.8,2851.0
20200105181419,61.4,8.8,2859.1
20200105181423,61.2,8.900001,2860.7
20200105181427,61.2,8.900001,2861.7
20200105181431,61.1,9.0,2862.0
20200105181435,61.0,9.0,2864.9
20200105181439,60.8,8.7,2877.8
20200105181442,60.9,8.7,2874.1
20200105181446,60.7,8.8,2878.4
20200105181450,60.6,8.8,2880.6
20200105181454,60.4,8.900001,2882.0
20200105181458,60.3,8.900001,2885.4
20200105181502,60.3,8.900001,2890.6
20200105181506,60.2,9.0,2895.9
20200105181510,60.1,9.1,2892.7
20200105181513,59.9,8.6,2897.6
20200105181517,59.9,8.7,2897.6
20200105181521,59.8,8.7,2903.3
20200105181525,59.7,8.8,2903.9
20200105181529,59.60001,8.8,2906.5
20200105181533,59.4,8.900001,2910.4
20200105181537,59.3,8.900001,2915.2
20200105181540,59.3,8.900001,2914.9
20200105181544,59.2,9.0,2920.8
20200105181548,59.0,9.0,2924.4
20200105181552,58.9,8.7,2927.3
20200105181556,58.8,8.7,2928.8
20200105181600,58.8,8.8,2928.3
20200105181604,58.7,8.8,2930.9
20200105181608,58.6,8.8,2942.6
20200105181611,58.4,8.900001,2936.7
20200105181615,58.4,8.900001,2943.2
20200105181619,58.4,9.0,2945.1
20200105181623,58.2,9.0,2946.3
20200105181627,58.1,9.1,2951.0
20200105181631,58.0,9.1,2956.6
20200105181635,57.9,8.8,2956.8
20200105181638,57.9,8.8,2960.9
20200105181642,57.7,8.900001,2960.7
20200105181646,57.6,8.900001,2967.3
20200105181650,57.5,8.900001,2963.1
20200105181654,57.4,9.0,2968.8
20200105181658,57.4,9.0,2976.0
20200105181702,57.3,9.1,2977.3
20200105181706,57.2,9.1,2979.2
20200105181709,57.0,9.2,2980.0
20200105181713,56.9,8.8,2986.0
20200105181717,57.0,9.3,2988.6
20200105181721,56.8,8.900001,2990.2
20200105181725,56.7,8.900001,2989.9
20200105181729,56.6,9.0,2993.4
20200105181733,56.5,9.0,3003.4
20200105181737,56.4,9.1,2995.5
20200105181740,56.4,9.1,2997.4
20200105181744,56.3,9.1,3002.3
20200105181748,56.1,9.2,3004.7
20200105181752,56.0,9.2,3008.5
20200105181756,55.9,8.900001,3007.7
20200105181800,55.9,9.0,3014.1
20200105181804,55.8,9.0,3012.8
20200105181807,55.7,9.0,3021.5
20200105181811,55.6,9.1,3019.8
20200105181815,55.5,9.1,3023.1
20200105181819,55.4,9.2,3024.5
20200105181823,55.4,9.2,3031.2
20200105181827,55.3,9.2,3031.5
20200105181831,55.2,9.3,3031.3
20200105181835,55.1,9.400001,3043.0
20200105181839,55.0,9.400001,3038.7
20200105181842,55.0,9.400001,3040.6
20200105181846,54.7,9.1,3043.4
20200105181850,54.7,9.1,3041.6
20200105181854,54.60001,9.1,3044.5
20200105181858,54.5,9.2,3047.8
20200105181902,54.4,9.2,3053.1
20200105181906,54.4,9.3,3058.2
20200105181909,54.3,9.3,3062.8
20200105181913,54.3,9.400001,3054.7
20200105181917,54.1,9.400001,3061.2
20200105181921,54.0,9.400001,3063.4
20200105181925,54.0,9.5,3064.6
20200105181929,53.9,9.1,3068.7
20200105181933,53.8,9.2,3070.8
20200105181937,53.7,9.2,3074.5
20200105181940,53.6,9.2,3083.0
20200105181944,53.5,9.3,3084.7
20200105181948,53.6,9.3,3084.2
20200105181952,53.4,9.400001,3089.9
20200105181956,53.3,9.400001,3090.1
20200105182000,53.2,9.5,3093.7
20200105182004,53.1,9.5,3091.9
20200105182008,53.0,9.5,3093.5
20200105182011,53.1,9.6,3096.5
20200105182015,52.9,9.3,3100.1
20200105182019,52.8,9.3,3101.6
20200105182023,52.7,9.3,3103.9
20200105182027,52.7,9.400001,3105.3
20200105182031,52.6,9.400001,3110.0
20200105182035,52.6,9.5,3115.5
20200105182038,52.5,9.5,3112.9
20200105182042,52.4,9.6,3115.5
20200105182046,52.3,9.6,3121.8
20200105182050,52.2,9.6,3118.4
20200105182054,52.10001,9.7,3120.0
20200105182058,52.10001,9.7,3121.2
20200105182102,52.0,9.8,3130.8
20200105182106,51.9,9.400001,3130.5
20200105182109,51.8,9.5,3131.5
20200105182113,51.7,9.5,3133.3
20200105182117,51.6,9.5,3137.4
20200105182121,51.6,9.6,3136.8
20200105182125,51.5,9.6,3144.7
20200105182129,51.4,9.7,3138.2
20200105182133,51.3,9.7,3144.0
20200105182137,51.2,9.8,3143.9
20200105182140,51.3,9.8,3147.5
20200105182144,51.2,9.8,3147.3
20200105182148,51.1,9.900001,3150.4
20200105182152,51.0,9.900001,3149.4
20200105182156,50.9,9.6,3154.2
20200105182200,50.8,9.6,3156.5
20200105182204,50.8,9.7,3159.7
20200105182207,50.7,9.7,3158.2
20200105182211,50.6,9.8,3163.0
20200105182215,50.5,9.8,3161.8
20200105182219,50.4,9.8,3165.8
20200105182223,50.4,9.900001,3177.0
20200105182227,50.4,9.900001,3170.1
20200105182231,50.3,10.0,3169.5
20200105182235,50.2,10.0,3173.1
20200105182238,50.1,10.1,3180.6
20200105182242,50.1,10.1,3176.4
20200105182246,49.9,10.0,3179.5
20200105182250,49.9,10.0,3181.4
20200105182254,49.8,10.1,3184.1
20200105182258,49.7,10.1,3185.7
20200105182302,49.7,10.2,3189.0
20200105182305,49.60001,10.2,3186.5
20200105182309,49.5,10.2,3190.6
20200105182313,49.5,10.3,3193.0
20200105182317,49.4,10.3,3194.3
20200105182321,49.3,10.4,3196.8
20200105182325,49.2,10.4,3201.0
20200105182329,49.2,10.5,3203.0
20200105182333,49.2,10.5,3202.2
20200105182336,49.1,10.5,3200.8
20200105182340,49.0,10.6,3201.2
20200105182344,48.9,10.3,3209.6
20200105182348,48.8,10.3,3211.1
20200105182352,48.7,10.3,3209.7
20200105182356,48.8,10.4,3214.6
20200105182400,48.7,10.4,3216.0
20200105182404,48.6,10.5,3216.3
20200105182407,48.5,10.5,3216.8
20200105182411,48.4,10.6,3212.9
20200105182415,48.3,10.6,3221.1
20200105182419,48.4,10.7,3222.8
20200105182423,48.3,10.7,3224.9
20200105182427,48.2,10.7,3226.9
20200105182431,48.1,10.8,3234.7
20200105182435,48.0,10.8,3232.7
20200105182438,48.0,10.9,3229.2
20200105182442,48.0,10.9,3235.4
20200105182446,47.9,10.6,3237.2
20200105182450,47.8,10.7,3241.7
20200105182454,47.7,10.7,3240.6
20200105182458,47.6,10.8,3243.6
20200105182502,47.6,10.8,3243.6
20200105182505,47.6,10.8,3247.2
20200105182509,47.5,10.9,3245.9
20200105182513,47.4,10.9,3245.8
20200105182517,47.3,11.0,3254.1
20200105182521,47.3,11.0,3254.7
20200105182525,47.10001,11.1,3251.1
20200105182529,47.10001,11.1,3253.8
20200105182533,47.10001,11.1,3257.2
20200105182536,47.0,11.2,3255.8
20200105182540,46.9,10.9,3261.7
20200105182544,46.8,10.9,3261.1
20200105182548,46.9,11.0,3264.9
20200105182552,46.8,11.0,3268.1
20200105182556,46.7,11.0,3263.7
20200105182600,46.6,11.1,3272.1
20200105182604,46.5,11.1,3273.0
20200105182607,46.5,11.2,3273.8
20200105182611,46.5,11.2,3274.0
20200105182615,46.4,11.2,3274.8
20200105182619,46.3,11.3,3275.6
20200105182623,46.3,11.3,3280.4
20200105182627,46.2,11.4,3278.9
20200105182631,46.1,11.4,3282.3
20200105182635,46.1,11.4,3278.6
20200105182638,46.1,11.5,3285.1
20200105182642,45.9,11.2,3284.9
20200105182646,45.9,11.3,3285.0

20200105182650,45.9,11.3,3287.0
20200105182654,45.8,11.4,3298.2
20200105182658,45.7,11.4,3288.9
20200105182702,45.7,11.4,3292.1
20200105182706,45.6,11.5,3296.3
20200105182709,45.5,11.5,3304.5
20200105182713,45.5,11.6,3299.3
20200105182717,45.5,11.6,3299.7
20200105182721,45.4,11.6,3306.0
20200105182725,45.3,11.7,3309.6
20200105182729,45.3,11.7,3305.5
20200105182733,45.1,11.8,3307.6
20200105182736,45.2,11.8,3309.1
20200105182740,45.1,11.9,3310.7
20200105182744,45.0,11.9,3315.2
20200105182748,44.9,11.6,3316.0
20200105182752,44.9,11.6,3312.8
20200105182756,44.9,11.7,3316.1
20200105182800,44.8,11.7,3316.4
20200105182804,44.7,11.7,3315.3
20200105182807,44.60001,11.8,3320.4
20200105182811,44.60001,11.8,3321.5
20200105182815,44.5,11.9,3326.5
20200105182819,44.5,11.9,3324.6
20200105182823,44.5,12.0,3325.9
20200105182827,44.4,12.0,3328.2
20200105182831,44.3,12.0,3331.3
20200105182834,44.3,12.1,3328.7
20200105182838,44.3,12.1,3330.2
20200105182842,44.2,12.1,3328.7
20200105182846,44.1,12.2,3326.5
20200105182850,44.0,12.3,3338.6
20200105182854,44.0,12.3,3332.2
20200105182858,43.9,12.0,3341.6
20200105182902,43.9,12.1,3341.9
20200105182905,43.9,12.1,3341.2
20200105182909,43.8,12.1,3343.2
20200105182913,43.7,12.2,3345.1
20200105182917,43.7,12.2,3345.1
20200105182921,43.7,12.2,3345.9
20200105182925,43.6,12.3,3349.0
20200105182929,43.5,12.3,3348.3
20200105182932,43.5,12.4,3358.8
20200105182936,43.5,12.4,3354.3
20200105182940,43.4,12.4,3355.4
20200105182944,43.3,12.5,3357.4
20200105182948,43.3,12.5,3351.8
20200105182952,43.2,12.6,3355.6
20200105182956,43.1,12.6,3360.9
20200105183000,43.1,12.7,3361.5
20200105183003,43.0,12.7,3366.4
20200105183007,43.0,12.7,3362.7
20200105183011,42.9,12.4,3367.0
20200105183015,42.9,12.4,3367.3
20200105183019,42.9,12.5,3368.7
20200105183023,42.8,12.5,3369.9
20200105183027,42.8,12.6,3379.3
20200105183030,42.7,12.6,3369.1
20200105183034,42.7,12.7,3373.0
20200105183038,42.6,12.7,3368.0
20200105183042,42.6,12.8,3371.2
20200105183046,42.5,12.8,3374.3
20200105183050,42.4,12.8,3376.4
20200105183054,42.4,12.9,3384.0
20200105183058,42.3,12.9,3380.3
20200105183101,42.3,12.9,3382.9
20200105183105,42.2,13.0,3381.0
20200105183109,42.2,13.0,3387.2
20200105183113,42.2,13.1,3387.5
20200105183117,42.10001,13.1,3390.0
20200105183121,42.0,13.1,3390.2
20200105183125,41.9,12.9,3386.0


